\relax 
\citation{huang2011reversible}
\citation{Thodi:RDH_Expansion2007:IEEEstyle,ShiYunQing:2016:IEEE_Access:RDH,weng2016reversible,weng2017optimal,weng2017reversible,hong2018joint,weng2019improved}
\citation{NS_1994}
\citation{QRstandard:2000}
\citation{fang2011offline}
\citation{lin2016distributed}
\citation{YWG_2016}
\citation{cheng2018improved}
\@writefile{toc}{\contentsline {section}{\numberline {1}Introduction}{2}}
\citation{Shyu:2007:RandomGrids}
\citation{lin2016distributed}
\citation{YWG_2016}
\citation{fang2011offline}
\@writefile{toc}{\contentsline {section}{\numberline {2}Related Background}{3}}
\citation{ISO}
\@writefile{lot}{\contentsline {table}{\numberline {1}{\ignorespaces Summary of symbols}}{4}}
\newlabel{table_denotationofsymbols}{{1}{4}}
\@writefile{toc}{\contentsline {subsection}{\numberline {2.1}QR Code}{4}}
\newlabel{QRcode}{{2.1}{4}}
\citation{RGB}
\@writefile{lof}{\contentsline {figure}{\numberline {1}{\ignorespaces Structure of a typical QR code (Version 7).}}{5}}
\newlabel{fig_QRcodestructure}{{1}{5}}
\@writefile{toc}{\contentsline {subsection}{\numberline {2.2} RGB Color Space and Color Stacking}{5}}
\newlabel{RGBmodelandCS}{{2.2}{5}}
\@writefile{toc}{\contentsline {subsubsection}{\numberline {2.2.1} RGB Color Space}{5}}
\@writefile{lof}{\contentsline {figure}{\numberline {2}{\ignorespaces Color mixing in RGB additive color space.}}{6}}
\newlabel{fig_RGBmodel}{{2}{6}}
\newlabel{equation_colorspace}{{1}{6}}
\newlabel{equation_eightcolorspace}{{2}{6}}
\@writefile{toc}{\contentsline {subsubsection}{\numberline {2.2.2}Color Stacking in RGB Space}{6}}
\newlabel{equation_CSoperation}{{4}{7}}
\@writefile{lot}{\contentsline {table}{\numberline {2}{\ignorespaces Color stacking of three shares}}{7}}
\newlabel{table_colorcombination}{{2}{7}}
\@writefile{toc}{\contentsline {subsection}{\numberline {2.3}Requirements for VSS-QR}{7}}
\newlabel{CVSSS}{{2.3}{7}}
\@writefile{toc}{\contentsline {section}{\numberline {3}The Proposed VSS-QR}{8}}
\newlabel{fig_overallBlockDiagram}{{3}{8}}
\@writefile{lof}{\contentsline {figure}{\numberline {3}{\ignorespaces The overall block diagram \leavevmode {\color  {blue}\textbf  {[ToDo: modify notation!]}}}}{8}}
\@writefile{toc}{\contentsline {subsection}{\numberline {3.1}VSS-QR Encoder}{9}}
\newlabel{Encoder}{{3.1}{9}}
\@writefile{loa}{\contentsline {algorithm}{\numberline {1}{\ignorespaces (3,3)-threshold VSS-QR algorithm}}{10}}
\newlabel{table_CVSSS_1}{{1}{10}}
\@writefile{toc}{\contentsline {subsection}{\numberline {3.2}VSS-QR Decoder}{10}}
\newlabel{decoder}{{3.2}{10}}
\citation{Grayscale}
\citation{Otsu2010}
\@writefile{toc}{\contentsline {subsubsection}{\numberline {3.2.1}Color Stacking}{11}}
\@writefile{toc}{\contentsline {subsubsection}{\numberline {3.2.2}Color to Grayscale Conversion}{11}}
\@writefile{toc}{\contentsline {subsubsection}{\numberline {3.2.3}Binarization}{11}}
\citation{ISO}
\@writefile{toc}{\contentsline {subsubsection}{\numberline {3.2.4}Decoding by Standard QR Code Scanner}{12}}
\@writefile{toc}{\contentsline {subsection}{\numberline {3.3}Computational Complexity}{12}}
\newlabel{Computational_Complexity}{{3.3}{12}}
\@writefile{toc}{\contentsline {section}{\numberline {4}Security Analysis}{12}}
\citation{Kay_detection_book:98}
\@writefile{toc}{\contentsline {subsection}{\numberline {4.1}Decoding from One Share}{13}}
\newlabel{oneshare}{{4.1}{13}}
\@writefile{lot}{\contentsline {table}{\numberline {3}{\ignorespaces Color probability diagram of a share}}{14}}
\newlabel{my_label1}{{3}{14}}
\@writefile{toc}{\contentsline {subsection}{\numberline {4.2}Decoding from Two Shares}{15}}
\newlabel{two_shares}{{4.2}{15}}
\newlabel{equation_four}{{31}{15}}
\newlabel{equation_five}{{32}{15}}
\newlabel{equation_six}{{33}{15}}
\@writefile{lot}{\contentsline {table}{\numberline {4}{\ignorespaces Color probability diagram of two shares}}{16}}
\newlabel{my_label2}{{4}{16}}
\newlabel{equation_posteriorprobability}{{34}{16}}
\citation{ISO}
\newlabel{equation_errorratio2}{{35}{17}}
\newlabel{fig_securityanalysis}{{4.2}{17}}
\@writefile{lof}{\contentsline {figure}{\numberline {4}{\ignorespaces Specific parts that are modified compared to secret QR code.}}{17}}
\@writefile{toc}{\contentsline {section}{\numberline {5}Experiment}{17}}
\@writefile{lot}{\contentsline {table}{\numberline {5}{\ignorespaces Error correction characteristics for QR code version 4\nobreakspace  {}\cite  {ISO}}}{18}}
\newlabel{table_Errorcorrectionversion4}{{5}{18}}
\@writefile{toc}{\contentsline {subsection}{\numberline {5.1}Our experiment}{18}}
\newlabel{ourexperiment}{{5.1}{18}}
\newlabel{fig_experimentfigure}{{5.1}{18}}
\@writefile{lof}{\contentsline {figure}{\numberline {5}{\ignorespaces a. ${\mathbf  {SC}}$; b. S1; c. S2; d. S3; e. ${\mathbf  {T}}$; f. ${\mathbf  {T'}}$; g. The difference of ${\mathbf  {SC}}$ and ${\mathbf  {T'}}$.}}{18}}
\@writefile{lof}{\contentsline {subfigure}{\numberline{(a)}{\ignorespaces {}}}{18}}
\@writefile{lof}{\contentsline {subfigure}{\numberline{(b)}{\ignorespaces {}}}{18}}
\@writefile{lof}{\contentsline {subfigure}{\numberline{(c)}{\ignorespaces {}}}{18}}
\@writefile{lof}{\contentsline {subfigure}{\numberline{(d)}{\ignorespaces {}}}{18}}
\@writefile{lof}{\contentsline {subfigure}{\numberline{(e)}{\ignorespaces {}}}{18}}
\@writefile{lof}{\contentsline {subfigure}{\numberline{(f)}{\ignorespaces {}}}{18}}
\@writefile{lof}{\contentsline {subfigure}{\numberline{(g)}{\ignorespaces {}}}{18}}
\newlabel{fig_timewithversion}{{5.1}{19}}
\@writefile{lof}{\contentsline {figure}{\numberline {6}{\ignorespaces The running time of the algorithm varies with version}}{19}}
\newlabel{equation_multiplerelation}{{36}{19}}
\@writefile{toc}{\contentsline {subsection}{\numberline {5.2}Others color}{19}}
\newlabel{othercolor}{{5.2}{19}}
\@writefile{lof}{\contentsline {figure}{\numberline {7}{\ignorespaces a.Cyan-${\mathbf  {T}}$; b. Yellow-${\mathbf  {T}}$; c. grayscale-binarization of a; d. grayscale-binarization of b; e. The difference of ${\mathbf  {SC}}$ and c; f. The difference of ${\mathbf  {SC}}$ and d.}}{20}}
\@writefile{lof}{\contentsline {subfigure}{\numberline{(a)}{\ignorespaces {}}}{20}}
\@writefile{lof}{\contentsline {subfigure}{\numberline{(b)}{\ignorespaces {}}}{20}}
\@writefile{lof}{\contentsline {subfigure}{\numberline{(c)}{\ignorespaces {}}}{20}}
\@writefile{lof}{\contentsline {subfigure}{\numberline{(d)}{\ignorespaces {}}}{20}}
\@writefile{lof}{\contentsline {subfigure}{\numberline{(e)}{\ignorespaces {}}}{20}}
\@writefile{lof}{\contentsline {subfigure}{\numberline{(f)}{\ignorespaces {}}}{20}}
\newlabel{fig_otherscolorQRcode}{{7}{20}}
\@writefile{toc}{\contentsline {subsection}{\numberline {5.3}Security verification}{20}}
\newlabel{securityverification}{{5.3}{20}}
\@writefile{toc}{\contentsline {subsection}{\numberline {5.4}Compared with QRCSS}{20}}
\newlabel{contrasttest}{{5.4}{20}}
\@writefile{lot}{\contentsline {table}{\numberline {6}{\ignorespaces QR code (4, L) experimental results}}{21}}
\newlabel{table_experimentalresults1}{{6}{21}}
\@writefile{lot}{\contentsline {table}{\numberline {7}{\ignorespaces QR code (5, H) experimental results}}{21}}
\newlabel{table_experimentalresults2}{{7}{21}}
\@writefile{lof}{\contentsline {figure}{\numberline {8}{\ignorespaces $\qopname  \relax m{Pr}(E)$ transformation diagrams.}}{22}}
\@writefile{lof}{\contentsline {subfigure}{\numberline{(a)}{\ignorespaces {}}}{22}}
\@writefile{lof}{\contentsline {subfigure}{\numberline{(b)}{\ignorespaces {}}}{22}}
\newlabel{fig_errorratefluctuation}{{8}{22}}
\bibstyle{elsarticle-num}
\bibdata{reference}
\bibcite{huang2011reversible}{1}
\bibcite{Thodi:RDH_Expansion2007:IEEEstyle}{2}
\bibcite{ShiYunQing:2016:IEEE_Access:RDH}{3}
\bibcite{weng2016reversible}{4}
\bibcite{weng2017optimal}{5}
\@writefile{lot}{\contentsline {table}{\numberline {8}{\ignorespaces Error Correction Capability Test Experiment }}{23}}
\newlabel{table_compareto26}{{8}{23}}
\@writefile{toc}{\contentsline {subsection}{\numberline {5.5}CVSSS $(n, n)$}{23}}
\@writefile{toc}{\contentsline {section}{\numberline {6}Conclusion}{23}}
\bibcite{weng2017reversible}{6}
\bibcite{hong2018joint}{7}
\bibcite{weng2019improved}{8}
\bibcite{NS_1994}{9}
\bibcite{QRstandard:2000}{10}
\bibcite{fang2011offline}{11}
\bibcite{lin2016distributed}{12}
\bibcite{YWG_2016}{13}
\bibcite{cheng2018improved}{14}
\bibcite{Shyu:2007:RandomGrids}{15}
\bibcite{ISO}{16}
\@writefile{loa}{\contentsline {algorithm}{\numberline {2}{\ignorespaces CVSSS (n, n) algorithm}}{24}}
\newlabel{table_CVSSS_2}{{2}{24}}
\bibcite{RGB}{17}
\bibcite{Grayscale}{18}
\bibcite{Otsu2010}{19}
\bibcite{Kay_detection_book:98}{20}
