\relax 
\@writefile{toc}{\contentsline {section}{\numberline {1}Introduction}{1}}
\newlabel{intro}{{1}{1}}
\citation{ref2D}
\citation{refHalftone}
\citation{refDistributed}
\citation{refEfficient}
\citation{refMulti}
\@writefile{lof}{\contentsline {figure}{\numberline {1}{\ignorespaces Beautified QR code generated by different methods}}{2}}
\newlabel{fig:QR methods}{{1}{2}}
\citation{refLab}
\@writefile{lof}{\contentsline {figure}{\numberline {2}{\ignorespaces The structure of the overall system}}{3}}
\newlabel{fig:structure}{{2}{3}}
\@writefile{toc}{\contentsline {section}{\numberline {2}The proposed algorithm}{3}}
\newlabel{sec:1}{{2}{3}}
\newlabel{tab:algorithm1}{{2}{4}}
\newlabel{eq:mn}{{1}{4}}
\newlabel{eq:10mn}{{2}{4}}
\newlabel{tab:codewords}{{2}{5}}
\@writefile{lot}{\contentsline {table}{\numberline {1}{\ignorespaces Codewords index of (5,H)-QR code}}{5}}
\@writefile{lof}{\contentsline {figure}{\numberline {3}{\ignorespaces Designed replacement modules $ R_{1}, R_{2}, R_{3}, R_{4} $}}{5}}
\newlabel{fig:Designed replacement modules}{{3}{5}}
\@writefile{lof}{\contentsline {figure}{\numberline {4}{\ignorespaces Module embedded into the image}}{6}}
\newlabel{fig:Module embedded into the image}{{4}{6}}
\@writefile{lof}{\contentsline {figure}{\numberline {5}{\ignorespaces Beautified two-level QR code}}{6}}
\newlabel{fig:Beautified two-level QR code}{{5}{6}}
\newlabel{eq:P}{{3}{6}}
\newlabel{eq:O}{{4}{6}}
\newlabel{tab:algorithm 2}{{2}{7}}
\newlabel{eq:T}{{5}{7}}
\@writefile{toc}{\contentsline {section}{\numberline {3}Experiments}{7}}
\newlabel{sec:2}{{3}{7}}
\citation{refEfficient}
\citation{refEfficient}
\@writefile{lot}{\contentsline {table}{\numberline {2}{\ignorespaces Different elimination index $\alpha $ in (5,L)-QR code}}{8}}
\newlabel{tab:Different elimination index}{{2}{8}}
\@writefile{lof}{\contentsline {figure}{\numberline {6}{\ignorespaces Optimization of beautified two-level QR code}}{8}}
\newlabel{fig:Optimization of beautified two-level QR code}{{6}{8}}
\@writefile{lof}{\contentsline {figure}{\numberline {7}{\ignorespaces Beautified two-level QR codes with the same version and different error correction levels}}{8}}
\newlabel{fig:same version and different error correction levels}{{7}{8}}
\citation{refImage}
\citation{refImage}
\citation{refEfficient}
\citation{refEfficient}
\citation{refEfficient}
\citation{refEfficient}
\citation{refEfficient}
\citation{refEfficient}
\citation{refEfficient}
\citation{refEfficient}
\citation{refEfficient}
\@writefile{lof}{\contentsline {figure}{\numberline {8}{\ignorespaces Beautified two-level QR codes with the same error correction level and different versions}}{9}}
\newlabel{fig:same error correction level and different versions}{{8}{9}}
\@writefile{lof}{\contentsline {figure}{\numberline {9}{\ignorespaces Comparison of results in [4] and this paper}}{9}}
\newlabel{fig:Comparison of results in [4] and this paper}{{9}{9}}
\@writefile{lof}{\contentsline {figure}{\numberline {10}{\ignorespaces Comparison of the PSNR of the beautified two-level QR codes generated by \cite  {refEfficient} and this paper}}{10}}
\newlabel{fig:PSNR}{{10}{10}}
\@writefile{lof}{\contentsline {figure}{\numberline {11}{\ignorespaces Comparison of the MSSIM of the beautified two-level QR codes generated by \cite  {refEfficient} and this paper}}{10}}
\newlabel{fig:MSSIM}{{11}{10}}
\@writefile{lof}{\contentsline {figure}{\numberline {12}{\ignorespaces Comparison of the storage capacity of the beautified two-level QR codes generated by \cite  {refEfficient} and this paper}}{10}}
\newlabel{fig:Storage Capacity}{{12}{10}}
\citation{refEfficient}
\citation{refEfficient}
\bibcite{ref2D}{1}
\bibcite{refHalftone}{2}
\bibcite{refDistributed}{3}
\bibcite{refEfficient}{4}
\bibcite{refMulti}{5}
\bibcite{refTwo-level}{6}
\bibcite{refQR}{7}
\bibcite{refAppearance}{8}
\bibcite{refLab}{9}
\bibcite{refImage}{10}
\@writefile{toc}{\contentsline {section}{\numberline {4}Conclusion}{11}}
\newlabel{sec:3}{{4}{11}}
